%!PS-Adobe-3.0 EPSF-3.0
%%Creator: cairo 1.15.6 (http://cairographics.org)
%%CreationDate: Sun Dec 03 11:31:43 2017
%%Pages: 1
%%DocumentData: Clean7Bit
%%LanguageLevel: 2
%%BoundingBox: 0 0 252 159
%%EndComments
%%BeginProlog
save
50 dict begin
/q { gsave } bind def
/Q { grestore } bind def
/cm { 6 array astore concat } bind def
/w { setlinewidth } bind def
/J { setlinecap } bind def
/j { setlinejoin } bind def
/M { setmiterlimit } bind def
/d { setdash } bind def
/m { moveto } bind def
/l { lineto } bind def
/c { curveto } bind def
/h { closepath } bind def
/re { exch dup neg 3 1 roll 5 3 roll moveto 0 rlineto
      0 exch rlineto 0 rlineto closepath } bind def
/S { stroke } bind def
/f { fill } bind def
/f* { eofill } bind def
/n { newpath } bind def
/W { clip } bind def
/W* { eoclip } bind def
/BT { } bind def
/ET { } bind def
/pdfmark where { pop globaldict /?pdfmark /exec load put }
    { globaldict begin /?pdfmark /pop load def /pdfmark
    /cleartomark load def end } ifelse
/BDC { mark 3 1 roll /BDC pdfmark } bind def
/EMC { mark /EMC pdfmark } bind def
/cairo_store_point { /cairo_point_y exch def /cairo_point_x exch def } def
/Tj { show currentpoint cairo_store_point } bind def
/TJ {
  {
    dup
    type /stringtype eq
    { show } { -0.001 mul 0 cairo_font_matrix dtransform rmoveto } ifelse
  } forall
  currentpoint cairo_store_point
} bind def
/cairo_selectfont { cairo_font_matrix aload pop pop pop 0 0 6 array astore
    cairo_font exch selectfont cairo_point_x cairo_point_y moveto } bind def
/Tf { pop /cairo_font exch def /cairo_font_matrix where
      { pop cairo_selectfont } if } bind def
/Td { matrix translate cairo_font_matrix matrix concatmatrix dup
      /cairo_font_matrix exch def dup 4 get exch 5 get cairo_store_point
      /cairo_font where { pop cairo_selectfont } if } bind def
/Tm { 2 copy 8 2 roll 6 array astore /cairo_font_matrix exch def
      cairo_store_point /cairo_font where { pop cairo_selectfont } if } bind def
/g { setgray } bind def
/rg { setrgbcolor } bind def
/d1 { setcachedevice } bind def
/cairo_flush_ascii85_file { cairo_ascii85_file status { cairo_ascii85_file flushfile } if } def
/cairo_image { image cairo_flush_ascii85_file } def
/cairo_imagemask { imagemask cairo_flush_ascii85_file } def
%%EndProlog
%%BeginSetup
%%EndSetup
%%Page: 1 1
%%BeginPageSetup
%%PageBoundingBox: 0 0 252 159
%%EndPageSetup
q 0 0 252 159 rectclip
1 0 0 -1 0 159 cm q
0.309804 0.505882 0.741176 rg
133.309 44.219 m 133.34 47.098 l 132.621 47.098 l 132.59 44.219 l h
133.34 49.258 m 133.34 52.137 l 132.621 52.137 l 132.621 49.258 l h
133.34 54.293 m 133.34 57.172 l 132.621 57.172 l 132.621 54.293 l h
133.34 59.332 m 133.34 62.211 l 132.621 62.211 l 132.621 59.332 l h
133.34 64.367 m 133.34 67.246 l 132.621 67.246 l 132.621 64.367 l h
133.34 69.406 m 133.34 72.281 l 132.621 72.281 l 132.621 69.406 l h
133.371 74.441 m 133.371 77.32 l 132.648 77.32 l 132.648 74.441 l h
133.371 79.48 m 133.371 82.355 l 132.648 82.355 l 132.648 79.48 l h
133.371 84.516 m 133.371 87.395 l 132.648 87.395 l 132.648 84.516 l h
133.371 89.551 m 133.371 92.43 l 132.648 92.43 l 132.648 89.551 l h
133.371 94.59 m 133.371 97.469 l 132.648 97.469 l 132.648 94.59 l h
133.371 99.625 m 133.398 102.504 l 132.68 102.504 l 132.648 99.625 l h
133.398 104.664 m 133.398 107.543 l 132.68 107.543 l 132.68 104.664 l h
133.398 109.699 m 133.398 112.578 l 132.68 112.578 l 132.68 109.699 l h
133.398 114.738 m 133.398 117.617 l 132.68 117.617 l 132.68 114.738 l h
133.398 119.773 m 133.398 122.652 l 132.68 122.652 l 132.68 119.773 l h
133.398 124.813 m 133.43 127.688 l 132.711 127.688 l 132.68 124.813 l h
133.43 129.848 m 133.43 132.727 l 132.711 132.727 l 132.711 129.848 l h
133.43 134.887 m 133.43 137.762 l 132.711 137.762 l 132.711 134.887 l h
133.43 139.922 m 133.43 142.801 l 132.711 142.801 l 132.711 139.922 l h
133.43 144.957 m 133.43 147.836 l 132.711 147.836 l 132.711 144.957 l h
133.43 149.996 m 133.43 152.875 l 132.711 152.875 l 132.711 149.996 l h
133.461 155.031 m 133.461 157.91 l 132.738 157.91 l 132.738 155.031 l h
133.461 155.031 m f
0 g
15.172 124.18 m 233.23 124.18 l 233.23 125.168 l 15.172 125.168 l h
227.477 120.73 m 234.223 124.66 l 227.477 128.617 l 227.234 128.738 226.934
 128.648 226.785 128.438 c 226.637 128.199 226.727 127.867 226.965 127.746
 c 232.961 124.238 l 232.961 125.109 l 226.965 121.602 l 226.727 121.48 
226.637 121.152 226.785 120.91 c 226.934 120.672 227.234 120.613 227.477
 120.73 c h
227.477 120.73 m f
q
0 0 252 159 re W n
  q
0 g
15.684 125.109 m 15.684 1.406 l 14.695 1.406 l 14.695 125.109 l h
19.133 7.16 m 15.172 0.414 l 11.246 7.16 l 11.125 7.402 11.188 7.699 11.426
 7.852 c 11.664 8 11.996 7.91 12.117 7.672 c 15.625 1.676 l 14.754 1.676
 l 18.262 7.672 l 18.383 7.91 18.711 8 18.953 7.852 c 19.16 7.699 19.25 
7.402 19.133 7.16 c h
19.133 7.16 m f
  Q
Q
0.309804 0.505882 0.741176 rg
80.652 44.43 m 80.684 47.305 l 79.965 47.305 l 79.934 44.43 l h
80.684 49.465 m 80.684 52.344 l 79.965 52.344 l 79.965 49.465 l h
80.684 54.504 m 80.684 57.379 l 79.965 57.379 l 79.965 54.504 l h
80.684 59.539 m 80.684 62.418 l 79.965 62.418 l 79.965 59.539 l h
80.684 64.574 m 80.684 67.453 l 79.965 67.453 l 79.965 64.574 l h
80.684 69.613 m 80.684 72.492 l 79.965 72.492 l 79.965 69.613 l h
80.715 74.648 m 80.715 77.527 l 79.996 77.527 l 79.996 74.648 l h
80.715 79.688 m 80.715 82.566 l 79.996 82.566 l 79.996 79.688 l h
80.715 84.723 m 80.715 87.602 l 79.996 87.602 l 79.996 84.723 l h
80.715 89.762 m 80.715 92.641 l 79.996 92.641 l 79.996 89.762 l h
80.715 94.797 m 80.715 97.676 l 79.996 97.676 l 79.996 94.797 l h
80.715 99.836 m 80.742 102.715 l 80.023 102.715 l 79.996 99.836 l h
80.742 104.871 m 80.742 107.75 l 80.023 107.75 l 80.023 104.871 l h
80.742 109.91 m 80.742 112.785 l 80.023 112.785 l 80.023 109.91 l h
80.742 114.945 m 80.742 117.824 l 80.023 117.824 l 80.023 114.945 l h
80.742 119.984 m 80.742 122.859 l 80.023 122.859 l 80.023 119.984 l h
80.742 125.02 m 80.773 127.898 l 80.055 127.898 l 80.023 125.02 l h
80.773 130.055 m 80.773 132.934 l 80.055 132.934 l 80.055 130.055 l h
80.773 135.094 m 80.773 137.973 l 80.055 137.973 l 80.055 135.094 l h
80.773 140.129 m 80.773 143.008 l 80.055 143.008 l 80.055 140.129 l h
80.773 145.168 m 80.773 148.047 l 80.055 148.047 l 80.055 145.168 l h
80.773 150.203 m 80.773 153.082 l 80.055 153.082 l 80.055 150.203 l h
80.805 155.242 m 80.805 158.121 l 80.086 158.121 l 80.086 155.242 l h
80.805 155.242 m f
0 g
130.418 125.254 m 130.418 123.781 131.648 122.555 133.117 122.555 c 134.613
 122.555 135.813 123.781 135.813 125.254 c 135.813 126.75 134.613 127.949
 133.117 127.949 c 131.648 127.949 130.418 126.75 130.418 125.254 c h
130.418 125.254 m f*
0.719564 w
0 J
1 j
[] 0.0 d
4 M q 1 0 0 1 0 0 cm
130.418 125.254 m 130.418 123.781 131.648 122.555 133.117 122.555 c 134.613
 122.555 135.813 123.781 135.813 125.254 c 135.813 126.75 134.613 127.949
 133.117 127.949 c 131.648 127.949 130.418 126.75 130.418 125.254 c S Q
Q q
0 0 235.672 152.023 re W n
q
0 0 236 153 re W n
  q
0 g
2.174173 w
0 J
1 j
[] 0.0 d
4 M q 1 0 0 1 0 0 cm
79.895 70.637 m 0.109 70.727 l S Q
  Q
Q
0 g
2.174173 w
0 J
1 j
[] 0.0 d
4 M q 1 0 0 1 0 0 cm
126.063 125.078 m 220.371 125.078 l S Q
Q q
0.0352941 0.537255 0.694118 rg
1.559055 w
1 J
1 j
[] 0.0 d
4 M q 1 0 0 1 0 0 cm
161.066 71.563 m 161.066 66.766 164.992 62.836 169.789 62.836 c 242.438
 62.836 l 247.234 62.836 251.129 66.766 251.129 71.563 c 251.129 106.43 
l 251.129 111.227 247.234 115.125 242.438 115.125 c 169.789 115.125 l 164.992
 115.125 161.066 111.227 161.066 106.43 c h
161.066 71.563 m S Q
160.504 89.504 m 135.02 89.688 l 134.582 89.707 134.223 89.238 134.234 
88.668 c 134.223 88.098 134.582 87.664 135.02 87.648 c 160.504 87.465 l 
160.941 87.477 161.301 87.914 161.289 88.484 c 161.301 89.055 160.941 89.516
 160.504 89.504 c h
139.34 93.094 m 133.449 88.668 l 139.301 84.188 l 139.688 83.902 140.152
 84.066 140.371 84.539 c 140.59 85.039 140.465 85.672 140.102 85.957 c 135.406
 89.555 l 135.414 87.785 l 140.129 91.324 l 140.504 91.609 140.637 92.234
 140.414 92.723 c 140.195 93.211 139.715 93.379 139.34 93.094 c h
139.34 93.094 m f
0 g
2.174173 w
0 J
0 j
q 1 0 0 1 0 0 cm
79.895 70.637 m 102.793 70.422 104.438 124.547 126.063 125.078 c S Q
0.309804 0.505882 0.741176 rg
0.788313 w
q 1 0 0 1 0 0 cm
82.121 60.156 m 131.207 60.156 l S Q
86.246 62.063 m 81.078 60.164 l 86.246 58.262 l 85.422 59.383 85.426 60.918
 86.246 62.063 c h
86.246 62.063 m f*
0.295618 w
1 j
q 1 0 0 1 0 0 cm
86.246 62.063 m 81.078 60.164 l 86.246 58.262 l 85.422 59.383 85.426 60.918
 86.246 62.063 c h
86.246 62.063 m S Q
127.082 58.246 m 132.25 60.148 l 127.082 62.047 l 127.906 60.926 127.902
 59.391 127.082 58.246 c h
127.082 58.246 m f*
q -1 0 0 -1 0 0 cm
-127.082 -58.246 m -132.25 -60.148 l -127.082 -62.047 l -127.906 -60.926
 -127.902 -59.391 -127.082 -58.246 c h
-127.082 -58.246 m S Q
1 g
100.75 48.234 13.559 20.035 re f
0 g
77.699 124.75 m 77.699 123.281 78.93 122.055 80.398 122.055 c 81.898 122.055
 83.098 123.281 83.098 124.75 c 83.098 126.25 81.898 127.449 80.398 127.449
 c 78.93 127.449 77.699 126.25 77.699 124.75 c h
77.699 124.75 m f*
0.719564 w
q 1 0 0 1 0 0 cm
77.699 124.75 m 77.699 123.281 78.93 122.055 80.398 122.055 c 81.898 122.055
 83.098 123.281 83.098 124.75 c 83.098 126.25 81.898 127.449 80.398 127.449
 c 78.93 127.449 77.699 126.25 77.699 124.75 c S Q
Q Q
showpage
%%Trailer
end restore
%%EOF
