%!PS-Adobe-3.0 EPSF-3.0
%%Creator: cairo 1.15.6 (http://cairographics.org)
%%CreationDate: Fri Dec 01 00:38:47 2017
%%Pages: 1
%%DocumentData: Clean7Bit
%%LanguageLevel: 2
%%BoundingBox: 0 0 251 159
%%EndComments
%%BeginProlog
save
50 dict begin
/q { gsave } bind def
/Q { grestore } bind def
/cm { 6 array astore concat } bind def
/w { setlinewidth } bind def
/J { setlinecap } bind def
/j { setlinejoin } bind def
/M { setmiterlimit } bind def
/d { setdash } bind def
/m { moveto } bind def
/l { lineto } bind def
/c { curveto } bind def
/h { closepath } bind def
/re { exch dup neg 3 1 roll 5 3 roll moveto 0 rlineto
      0 exch rlineto 0 rlineto closepath } bind def
/S { stroke } bind def
/f { fill } bind def
/f* { eofill } bind def
/n { newpath } bind def
/W { clip } bind def
/W* { eoclip } bind def
/BT { } bind def
/ET { } bind def
/pdfmark where { pop globaldict /?pdfmark /exec load put }
    { globaldict begin /?pdfmark /pop load def /pdfmark
    /cleartomark load def end } ifelse
/BDC { mark 3 1 roll /BDC pdfmark } bind def
/EMC { mark /EMC pdfmark } bind def
/cairo_store_point { /cairo_point_y exch def /cairo_point_x exch def } def
/Tj { show currentpoint cairo_store_point } bind def
/TJ {
  {
    dup
    type /stringtype eq
    { show } { -0.001 mul 0 cairo_font_matrix dtransform rmoveto } ifelse
  } forall
  currentpoint cairo_store_point
} bind def
/cairo_selectfont { cairo_font_matrix aload pop pop pop 0 0 6 array astore
    cairo_font exch selectfont cairo_point_x cairo_point_y moveto } bind def
/Tf { pop /cairo_font exch def /cairo_font_matrix where
      { pop cairo_selectfont } if } bind def
/Td { matrix translate cairo_font_matrix matrix concatmatrix dup
      /cairo_font_matrix exch def dup 4 get exch 5 get cairo_store_point
      /cairo_font where { pop cairo_selectfont } if } bind def
/Tm { 2 copy 8 2 roll 6 array astore /cairo_font_matrix exch def
      cairo_store_point /cairo_font where { pop cairo_selectfont } if } bind def
/g { setgray } bind def
/rg { setrgbcolor } bind def
/d1 { setcachedevice } bind def
/cairo_flush_ascii85_file { cairo_ascii85_file status { cairo_ascii85_file flushfile } if } def
/cairo_image { image cairo_flush_ascii85_file } def
/cairo_imagemask { imagemask cairo_flush_ascii85_file } def
%%EndProlog
%%BeginSetup
%%EndSetup
%%Page: 1 1
%%BeginPageSetup
%%PageBoundingBox: 0 0 251 159
%%EndPageSetup
q 0 0 251 159 rectclip
1 0 0 -1 0 159 cm q
Q q
0 0 250.945 159 re W n
q
0 0 251 159 re W n
  q
1 g
-1.207 -0.102 252 159 re f
  Q
Q
0 g
15.172 124.18 m 233.23 124.18 l 233.23 125.168 l 15.172 125.168 l h
227.477 120.73 m 234.223 124.66 l 227.477 128.617 l 227.234 128.738 226.934
 128.648 226.785 128.438 c 226.637 128.199 226.727 127.867 226.965 127.746
 c 232.961 124.238 l 232.961 125.109 l 226.965 121.602 l 226.727 121.48 
226.637 121.152 226.785 120.91 c 226.934 120.672 227.234 120.613 227.477
 120.73 c h
227.477 120.73 m f
Q q
q
0 0 252 159 re W n
  q
0 g
15.684 125.109 m 15.684 1.406 l 14.695 1.406 l 14.695 125.109 l h
19.133 7.16 m 15.172 0.414 l 11.246 7.16 l 11.125 7.402 11.188 7.699 11.426
 7.852 c 11.664 8 11.996 7.91 12.117 7.672 c 15.625 1.676 l 14.754 1.676
 l 18.262 7.672 l 18.383 7.91 18.711 8 18.953 7.852 c 19.16 7.699 19.25 
7.402 19.133 7.16 c h
19.133 7.16 m f
  Q
Q
0 g
118.523 124.719 m 118.523 123.25 119.754 122.02 121.223 122.02 c 122.723
 122.02 123.922 123.25 123.922 124.719 c 123.922 126.219 122.723 127.418
 121.223 127.418 c 119.754 127.418 118.523 126.219 118.523 124.719 c h
118.523 124.719 m f*
0.719564 w
0 J
1 j
[] 0.0 d
4 M q 1 0 0 1 0 0 cm
118.523 124.719 m 118.523 123.25 119.754 122.02 121.223 122.02 c 122.723
 122.02 123.922 123.25 123.922 124.719 c 123.922 126.219 122.723 127.418
 121.223 127.418 c 119.754 127.418 118.523 126.219 118.523 124.719 c S Q
Q q
0 0 252 152.023 re W n
q
0 0 252 153 re W n
  q
0 g
5.774858 w
0 J
1 j
[] 0.0 d
4 M q 1 0 0 0.355681 0 0 cm
224.613 198.596 m 0.004 197.948 l S Q
  Q
Q
Q Q
showpage
%%Trailer
end restore
%%EOF
