<?xml version="1.0" encoding="UTF-8" standalone="no"?>
<svg
   xmlns:dc="http://purl.org/dc/elements/1.1/"
   xmlns:cc="http://creativecommons.org/ns#"
   xmlns:rdf="http://www.w3.org/1999/02/22-rdf-syntax-ns#"
   xmlns:svg="http://www.w3.org/2000/svg"
   xmlns="http://www.w3.org/2000/svg"
   xmlns:sodipodi="http://sodipodi.sourceforge.net/DTD/sodipodi-0.dtd"
   xmlns:inkscape="http://www.inkscape.org/namespaces/inkscape"
   version="1.0"
   width="335.88037"
   height="211.96515"
   id="svg114"
   sodipodi:docname="p_rrr_equality.svg"
   inkscape:version="0.92.2 (5c3e80d, 2017-08-06)">
  <metadata
     id="metadata118">
    <rdf:RDF>
      <cc:Work
         rdf:about="">
        <dc:format>image/svg+xml</dc:format>
        <dc:type
           rdf:resource="http://purl.org/dc/dcmitype/StillImage" />
        <dc:title></dc:title>
      </cc:Work>
    </rdf:RDF>
  </metadata>
  <sodipodi:namedview
     pagecolor="#ffffff"
     bordercolor="#666666"
     borderopacity="1"
     objecttolerance="10"
     gridtolerance="10"
     guidetolerance="10"
     inkscape:pageopacity="0"
     inkscape:pageshadow="2"
     inkscape:window-width="1166"
     inkscape:window-height="670"
     id="namedview116"
     showgrid="false"
     inkscape:zoom="1.2447066"
     inkscape:cx="231.61872"
     inkscape:cy="176.47446"
     inkscape:window-x="225"
     inkscape:window-y="150"
     inkscape:window-maximized="0"
     inkscape:current-layer="g68"
     fit-margin-top="0"
     fit-margin-left="0"
     fit-margin-right="0"
     fit-margin-bottom="0"
     units="px" />
  <defs
     id="defs6">
    <clipPath
       clipPathUnits="userSpaceOnUse"
       id="clipEmfPath1">
      <path
         d="M 0.79951545,1.5990309 H 351.62689 V 228.0218 H 0.79951545 Z"
         id="path2"
         inkscape:connector-curvature="0" />
    </clipPath>
    <pattern
       id="EMFhbasepattern"
       patternUnits="userSpaceOnUse"
       width="6"
       height="6"
       x="0"
       y="0" />
  </defs>
  <g
     clip-path="url(#clipEmfPath1)"
     id="g68"
     transform="translate(-17.034221,-13.438234)">
    <text
       xml:space="preserve"
       style="font-style:italic;font-variant:normal;font-weight:400;font-size:28.375px;line-height:125%;font-family:'Times New Roman';text-align:start;letter-spacing:0px;word-spacing:0px;text-anchor:start;fill:#000000;fill-opacity:1;stroke:none"
       transform="translate(267.31228,58.787229)"
       x="-41.67046"
       y="0"
       id="text66"><tspan
         sodipodi:role="line"
         x="-41.67046"
         y="0"
         id="tspan64"
         style="font-style:normal;font-variant:normal;font-weight:normal;font-stretch:normal;font-family:'Times New Roman';-inkscape-font-specification:'Times New Roman, '"><tspan
           dx="0 0 -0.182606"
           dy="0 0 0"
           style="font-style:normal;font-variant:normal;font-weight:normal;font-stretch:normal;font-size:28.375px;font-family:'Times New Roman';-inkscape-font-specification:'Times New Roman, ';fill:#000000"
           id="tspan60">$x = x^*$</tspan></tspan></text>
    <rect
       style="opacity:1;fill:#ffffff;fill-opacity:1;stroke:none"
       id="rect862"
       width="336"
       height="212"
       x="15.427417"
       y="13.305223" />
  </g>
  <path
     style="fill:#000000;fill-opacity:1;fill-rule:nonzero;stroke:#000000;stroke-width:0.03997577px;stroke-linecap:butt;stroke-linejoin:round;stroke-miterlimit:4;stroke-dasharray:none;stroke-opacity:1"
     d="M 20.231678,165.57328 H 310.97547 v 1.3192 H 20.231678 Z m 283.068442,-4.59722 8.99455,5.23683 -8.99455,5.2768 c -0.3198,0.15991 -0.71956,0.04 -0.91944,-0.23985 -0.19988,-0.31981 -0.0799,-0.75954 0.23985,-0.91944 l 7.99516,-4.67717 v 1.1593 l -7.99516,-4.67717 c -0.3198,-0.1599 -0.43973,-0.59963 -0.23985,-0.91944 0.19988,-0.31981 0.59964,-0.39976 0.91944,-0.23986 z"
     id="path8"
     inkscape:connector-curvature="0" />
  <path
     style="fill:#000000;fill-opacity:1;fill-rule:nonzero;stroke:#000000;stroke-width:0.03997577px;stroke-linecap:butt;stroke-linejoin:round;stroke-miterlimit:4;stroke-dasharray:none;stroke-opacity:1"
     clip-path="url(#clipEmfPath1)"
     d="M 23.945488,180.25076 V 15.310721 H 22.626287 V 180.25076 Z M 28.542701,22.986069 23.265899,13.99152 18.029073,22.986069 c -0.159903,0.319806 -0.07995,0.719564 0.239855,0.919443 0.319806,0.199879 0.75954,0.07995 0.919443,-0.239855 l 4.677165,-7.995154 h -1.159297 l 4.677165,7.995154 c 0.159903,0.319806 0.599637,0.439734 0.919443,0.239855 0.27983,-0.199879 0.399757,-0.599637 0.239854,-0.919443 z"
     id="path10"
     inkscape:connector-curvature="0"
     transform="translate(-3.0342211,-13.438234)" />
  <g
     clip-path="url(#clipEmfPath1)"
     id="g18"
     transform="translate(-3.0342211,-11.438234)">
    <text
       xml:space="preserve"
       style="font-style:italic;font-variant:normal;font-weight:400;font-size:29px;line-height:125%;font-family:'Times New Roman';text-align:start;letter-spacing:0px;word-spacing:0px;text-anchor:start;fill:#000000;fill-opacity:1;stroke:none"
       transform="translate(32.679194,26.25318)"
       x="0"
       y="0"
       id="text16"><tspan
         sodipodi:role="line"
         x="0"
         y="0"
         id="tspan14"
         style="font-style:normal"><tspan
           dx="0 0"
           dy="0 0"
           style="font-style:normal;font-variant:normal;font-weight:400;font-size:29px;font-family:'Times New Roman';fill:#000000"
           id="tspan12">$a$</tspan></tspan></text>
  </g>
  <g
     clip-path="url(#clipEmfPath1)"
     id="g26"
     transform="translate(-3.0342211,-13.438234)">
    <text
       xml:space="preserve"
       style="font-style:italic;font-variant:normal;font-weight:400;font-size:29.1875px;line-height:125%;font-family:'Times New Roman';text-align:start;letter-spacing:0px;word-spacing:0px;text-anchor:start;fill:#000000;fill-opacity:1;stroke:none"
       transform="translate(300.9536,204.86493)"
       x="0"
       y="0"
       id="text24"><tspan
         sodipodi:role="line"
         x="0"
         y="0"
         id="tspan22"
         style="font-style:normal"><tspan
           style="font-style:normal;font-variant:normal;font-weight:400;font-size:29.1875px;font-family:'Times New Roman';fill:#000000"
           id="tspan20"
           dy="0 0"
           dx="0 0">$x$</tspan></tspan></text>
  </g>
  <g
     clip-path="url(#clipEmfPath1)"
     id="g40"
     transform="translate(-63.034221,-7.4382333)">
    <text
       xml:space="preserve"
       style="font-style:italic;font-variant:normal;font-weight:400;font-size:28.3125px;line-height:125%;font-family:'Times New Roman';text-align:start;letter-spacing:0px;word-spacing:0px;text-anchor:start;fill:#000000;fill-opacity:1;stroke:none"
       transform="translate(223.23701,206.70139)"
       x="-12.472441"
       y="-7.0890369"
       id="text38"><tspan
         sodipodi:role="line"
         x="-12.472441"
         y="-7.0890369"
         id="tspan36"
         style="font-style:normal"><tspan
           dx="0 0"
           dy="0 0"
           style="font-style:normal;font-variant:normal;font-weight:400;font-size:28.3125px;font-family:'Times New Roman';fill:#000000"
           id="tspan34">$x^*$</tspan></tspan></text>
  </g>
  <path
     style="fill:#000000;fill-opacity:1;fill-rule:evenodd;stroke:none"
     d="m 158.0318,166.29284 c 0,-1.95881 1.63901,-3.59782 3.59782,-3.59782 1.99879,0 3.59782,1.63901 3.59782,3.59782 0,1.99879 -1.59903,3.59782 -3.59782,3.59782 -1.95881,0 -3.59782,-1.59903 -3.59782,-3.59782 z"
     id="path70"
     inkscape:connector-curvature="0" />
  <path
     style="fill:none;stroke:#000000;stroke-width:0.95941854px;stroke-linecap:butt;stroke-linejoin:round;stroke-miterlimit:4;stroke-dasharray:none;stroke-opacity:1"
     d="m 158.0318,166.29284 c 0,-1.95881 1.63901,-3.59782 3.59782,-3.59782 1.99879,0 3.59782,1.63901 3.59782,3.59782 0,1.99879 -1.59903,3.59782 -3.59782,3.59782 -1.95881,0 -3.59782,-1.59903 -3.59782,-3.59782"
     id="path72"
     inkscape:connector-curvature="0" />
  <text
     xml:space="preserve"
     style="font-style:italic;font-variant:normal;font-weight:normal;font-stretch:normal;font-size:21.25px;line-height:125%;font-family:cmr10;-inkscape-font-specification:'cmr10 Italic';text-align:start;letter-spacing:0px;word-spacing:0px;text-anchor:start;fill:#000000;fill-opacity:1;stroke:none"
     x="201.73483"
     y="15.940096"
     id="text78"><tspan
       sodipodi:role="line"
       x="201.73483"
       y="15.940096"
       id="tspan76"><tspan
         style="font-style:italic;font-variant:normal;font-weight:normal;font-stretch:normal;font-size:21.25px;font-family:cmr10;-inkscape-font-specification:'cmr10 Italic';fill:#000000"
         id="tspan74">equality </tspan></tspan></text>
  <path
     style="fill:none;stroke:#000000;stroke-width:3.03815866px;stroke-linecap:butt;stroke-linejoin:round;stroke-miterlimit:4;stroke-dasharray:none;stroke-opacity:1"
     clip-path="url(#clipEmfPath1)"
     d="M 121.20654,107.63477 3.0381587,107.29497"
     id="path82"
     inkscape:connector-curvature="0"
     transform="matrix(2.5343674,0,0,0.90142591,-7.6958729,-2.8449813)" />
  <g
     clip-path="url(#clipEmfPath1)"
     id="g92"
     transform="translate(-3.0342211,-13.438234)">
    <text
       xml:space="preserve"
       style="font-style:normal;font-variant:normal;font-weight:400;font-size:28.25px;line-height:125%;font-family:'Times New Roman';text-align:start;letter-spacing:0px;word-spacing:0px;text-anchor:start;fill:#000000;fill-opacity:1;stroke:none"
       transform="translate(33.316951,98.278899)"
       x="0"
       y="0"
       id="text90"><tspan
         sodipodi:role="line"
         x="0"
         y="0"
         id="tspan88"><tspan
           dx="0 0"
           dy="0 0"
           style="font-style:normal;font-variant:normal;font-weight:400;font-size:28.25px;font-family:'Times New Roman';fill:#000000"
           id="tspan86">$1$</tspan></tspan></text>
  </g>
</svg>
