%!PS-Adobe-3.0 EPSF-3.0
%%Creator: cairo 1.15.6 (http://cairographics.org)
%%CreationDate: Fri Dec 15 17:20:47 2017
%%Pages: 1
%%DocumentData: Clean7Bit
%%LanguageLevel: 2
%%BoundingBox: 0 0 135 105
%%EndComments
%%BeginProlog
save
50 dict begin
/q { gsave } bind def
/Q { grestore } bind def
/cm { 6 array astore concat } bind def
/w { setlinewidth } bind def
/J { setlinecap } bind def
/j { setlinejoin } bind def
/M { setmiterlimit } bind def
/d { setdash } bind def
/m { moveto } bind def
/l { lineto } bind def
/c { curveto } bind def
/h { closepath } bind def
/re { exch dup neg 3 1 roll 5 3 roll moveto 0 rlineto
      0 exch rlineto 0 rlineto closepath } bind def
/S { stroke } bind def
/f { fill } bind def
/f* { eofill } bind def
/n { newpath } bind def
/W { clip } bind def
/W* { eoclip } bind def
/BT { } bind def
/ET { } bind def
/pdfmark where { pop globaldict /?pdfmark /exec load put }
    { globaldict begin /?pdfmark /pop load def /pdfmark
    /cleartomark load def end } ifelse
/BDC { mark 3 1 roll /BDC pdfmark } bind def
/EMC { mark /EMC pdfmark } bind def
/cairo_store_point { /cairo_point_y exch def /cairo_point_x exch def } def
/Tj { show currentpoint cairo_store_point } bind def
/TJ {
  {
    dup
    type /stringtype eq
    { show } { -0.001 mul 0 cairo_font_matrix dtransform rmoveto } ifelse
  } forall
  currentpoint cairo_store_point
} bind def
/cairo_selectfont { cairo_font_matrix aload pop pop pop 0 0 6 array astore
    cairo_font exch selectfont cairo_point_x cairo_point_y moveto } bind def
/Tf { pop /cairo_font exch def /cairo_font_matrix where
      { pop cairo_selectfont } if } bind def
/Td { matrix translate cairo_font_matrix matrix concatmatrix dup
      /cairo_font_matrix exch def dup 4 get exch 5 get cairo_store_point
      /cairo_font where { pop cairo_selectfont } if } bind def
/Tm { 2 copy 8 2 roll 6 array astore /cairo_font_matrix exch def
      cairo_store_point /cairo_font where { pop cairo_selectfont } if } bind def
/g { setgray } bind def
/rg { setrgbcolor } bind def
/d1 { setcachedevice } bind def
/cairo_flush_ascii85_file { cairo_ascii85_file status { cairo_ascii85_file flushfile } if } def
/cairo_image { image cairo_flush_ascii85_file } def
/cairo_imagemask { imagemask cairo_flush_ascii85_file } def
%%EndProlog
%%BeginSetup
%%EndSetup
%%Page: 1 1
%%BeginPageSetup
%%PageBoundingBox: 0 0 135 105
%%EndPageSetup
q 0 0 135 105 rectclip
1 0 0 -1 0 105 cm q
0.309804 0.505882 0.741176 rg
37.57 96.328 m 38.438 93.09 41.871 91.199 45.246 92.098 c 48.602 93 50.629
 96.355 49.758 99.594 c 48.902 102.816 45.469 104.707 42.098 103.809 c 38.738
 102.906 36.715 99.551 37.57 96.328 c h
37.57 96.328 m f*
0.415686 0.584314 0.862745 rg
37.57 96.328 m 38.438 93.09 41.871 91.199 45.246 92.098 c 48.602 93 50.629
 96.355 49.758 99.594 c 48.902 102.816 45.469 104.707 42.098 103.809 c 38.738
 102.906 36.715 99.551 37.57 96.328 c f
0 g
0.749546 w
0 J
1 j
[] 0.0 d
4 M q 1 0 0 1 0 0 cm
37.57 96.328 m 38.438 93.09 41.871 91.199 45.246 92.098 c 48.602 93 50.629
 96.355 49.758 99.594 c 48.902 102.816 45.469 104.707 42.098 103.809 c 38.738
 102.906 36.715 99.551 37.57 96.328 c S Q
0.309804 0.505882 0.741176 rg
113.289 96.313 m 114.145 93.074 117.605 91.184 121.008 92.098 c 124.398
 93.012 126.449 96.371 125.598 99.609 c 124.727 102.832 121.266 104.723 
117.875 103.809 c 114.473 102.891 112.418 99.535 113.289 96.313 c h
113.289 96.313 m f*
0.415686 0.584314 0.862745 rg
113.289 96.313 m 114.145 93.074 117.605 91.184 121.008 92.098 c 124.398
 93.012 126.449 96.371 125.598 99.609 c 124.727 102.832 121.266 104.723 
117.875 103.809 c 114.473 102.891 112.418 99.535 113.289 96.313 c f
0 g
q 1 0 0 1 0 0 cm
113.289 96.313 m 114.145 93.074 117.605 91.184 121.008 92.098 c 124.398
 93.012 126.449 96.371 125.598 99.609 c 124.727 102.832 121.266 104.723 
117.875 103.809 c 114.473 102.891 112.418 99.535 113.289 96.313 c S Q
0.309804 0.505882 0.741176 rg
8.09 76.688 m 8.961 73.457 12.414 71.578 15.816 72.484 c 19.215 73.398 
21.266 76.754 20.406 79.984 c 19.535 83.219 16.082 85.098 12.676 84.191 
c 9.281 83.277 7.227 79.918 8.09 76.688 c h
8.09 76.688 m f*
0.415686 0.584314 0.862745 rg
8.09 76.688 m 8.961 73.457 12.414 71.578 15.816 72.484 c 19.215 73.398 
21.266 76.754 20.406 79.984 c 19.535 83.219 16.082 85.098 12.676 84.191 
c 9.281 83.277 7.227 79.918 8.09 76.688 c f
0 g
q 1 0 0 1 0 0 cm
8.09 76.688 m 8.961 73.457 12.414 71.578 15.816 72.484 c 19.215 73.398 
21.266 76.754 20.406 79.984 c 19.535 83.219 16.082 85.098 12.676 84.191 
c 9.281 83.277 7.227 79.918 8.09 76.688 c S Q
0.47451 0.741176 0.87451 rg
1.008 70.332 m 33.223 96.715 l 133.887 96.715 l 101.688 70.332 l h
1.008 70.332 m f*
0 g
0.719564 w
0 j
8 M q 1 0 0 1 0 0 cm
1.008 70.332 m 33.223 96.715 l 133.887 96.715 l 101.688 70.332 l h
1.008 70.332 m S Q
0.309804 0.505882 0.741176 rg
40.113 82.566 m 40.113 81.27 43.586 80.219 47.855 80.227 c 52.137 80.234
 55.598 81.297 55.602 82.59 c 55.59 83.895 52.117 84.934 47.836 84.93 c 
43.555 84.926 40.094 83.863 40.113 82.566 c h
40.113 82.566 m f*
0 g
1.15681 w
1 j
10 M q -0.879083 -0.626793 1 -0.551003 0 0 cm
-93.838 -42.663 m -92.547 -41.529 -93.255 -38.611 -95.423 -36.166 c -97.588
 -33.71 -100.39 -32.65 -101.677 -33.781 c -102.965 -34.925 -102.249 -37.83
 -100.084 -40.286 c -97.916 -42.745 -95.115 -43.805 -93.838 -42.663 c S Q
0.309804 0.505882 0.741176 rg
39.941 64.551 m 56.004 64.57 l 55.895 82.344 l 39.828 82.324 l h
39.941 64.551 m f*
39.777 64.551 m 39.773 62.949 43.332 61.652 47.707 61.664 c 52.09 61.668
 55.621 62.969 55.621 64.57 c 55.602 66.172 52.055 67.457 47.672 67.453 
c 43.313 67.449 39.77 66.145 39.777 64.551 c h
39.777 64.551 m f*
0 g
1.112844 w
q -0.879083 -0.626793 1 -0.551003 0 0 cm
-85.429 -19.404 m -101.993 -34.059 l S Q
1.090902 w
q -0.879083 -0.626793 1 -0.551003 0 0 cm
-77.899 -28.566 m -93.838 -42.663 l S Q
1.15681 w
q -0.879083 -0.626793 1 -0.551003 0 0 cm
-77.899 -28.566 m -76.612 -27.435 -77.32 -24.517 -79.483 -22.071 c -81.648
 -19.615 -84.452 -18.553 -85.742 -19.687 c -87.03 -20.831 -86.308 -23.735
 -84.143 -26.191 c -81.978 -28.647 -79.174 -29.71 -77.899 -28.566 c S Q
1.943309 w
q 1 0 0 1 0 0 cm
47.77 43.008 m 47.77 64.465 l S Q
2.278619 w
q 1 0 0 1 0 0 cm
94.133 20.262 m 111.043 8.75 l S Q
2.124783 w
q 1 0 0 1 0 0 cm
46.523 44.973 m 68.516 26.918 l S Q
2.278619 w
q 1 0 0 1 0 0 cm
66.43 27.816 m 92.934 19.664 l S Q
0.309804 0.505882 0.741176 rg
87.867 18.195 m 88.473 15.922 91.043 14.648 93.617 15.332 c 96.18 16.02
 97.77 18.418 97.16 20.684 c 96.555 22.945 93.984 24.227 91.41 23.539 c 
88.848 22.848 87.258 20.457 87.867 18.195 c h
87.867 18.195 m f*
0 g
0.749546 w
q 1 0 0 1 0 0 cm
87.867 18.195 m 88.473 15.922 91.043 14.648 93.617 15.332 c 96.18 16.02
 97.77 18.418 97.16 20.684 c 96.555 22.945 93.984 24.227 91.41 23.539 c 
88.848 22.848 87.258 20.457 87.867 18.195 c S Q
0.309804 0.505882 0.741176 rg
43.961 36.398 m 44.918 36.875 44.891 38.863 43.898 40.832 c 42.91 42.809
 41.328 44.016 40.375 43.539 c 39.418 43.055 39.449 41.07 40.441 39.094 
c 41.43 37.121 43.012 35.91 43.961 36.398 c h
43.961 36.398 m f*
0 g
0.768463 w
q 1 -0.264198 0.264198 1 0 0 cm
32.344 44.901 m 33.2 45.654 32.727 47.592 31.29 49.216 c 29.851 50.848 
27.99 51.551 27.134 50.798 c 26.279 50.041 26.755 48.108 28.194 46.476 c
 29.633 44.845 31.494 44.141 32.344 44.901 c S Q
0.309804 0.505882 0.741176 rg
57.273 42.941 m 53.555 50.348 l 40.488 43.766 l 44.207 36.355 l h
57.273 42.941 m f*
57.313 42.863 m 58.492 43.453 58.625 45.57 57.609 47.586 c 56.598 49.609
 54.828 50.762 53.645 50.176 c 52.473 49.578 52.34 47.465 53.352 45.441 
c 54.359 43.43 56.141 42.277 57.313 42.863 c h
57.313 42.863 m f*
0 g
0.739256 w
q 1 -0.264198 0.264198 1 0 0 cm
37.931 60.349 m 26.925 50.613 l S Q
0.724681 w
q 1 -0.264198 0.264198 1 0 0 cm
42.929 54.264 m 32.344 44.901 l S Q
0.768463 w
q 1 -0.264198 0.264198 1 0 0 cm
42.929 54.264 m 43.785 55.017 43.317 56.952 41.879 58.58 c 40.44 60.211
 38.578 60.915 37.723 60.162 c 36.864 59.404 37.344 57.472 38.782 55.84 
c 40.221 54.208 42.083 53.505 42.929 54.264 c S Q
0.309804 0.505882 0.741176 rg
62.352 20.672 m 63.305 21.148 63.281 23.137 62.289 25.105 c 61.301 27.082
 59.719 28.289 58.766 27.813 c 57.809 27.328 57.84 25.344 58.832 23.367 
c 59.82 21.395 61.402 20.184 62.352 20.672 c h
62.352 20.672 m f*
0 g
q 1 -0.264198 0.264198 1 0 0 cm
53.415 34.741 m 54.271 35.494 53.802 37.433 52.365 39.057 c 50.926 40.689
 49.064 41.392 48.209 40.639 c 47.35 39.881 47.829 37.949 49.268 36.317 
c 50.707 34.686 52.569 33.982 53.415 34.741 c S Q
0.309804 0.505882 0.741176 rg
75.664 27.215 m 71.945 34.621 l 58.879 28.039 l 62.594 20.629 l h
75.664 27.215 m f*
75.699 27.137 m 76.883 27.727 77.016 29.844 76 31.859 c 74.984 33.883 73.215
 35.035 72.035 34.449 c 70.859 33.852 70.73 31.738 71.742 29.715 c 72.75
 27.703 74.527 26.551 75.699 27.137 c h
75.699 27.137 m f*
0 g
0.739256 w
q 1 -0.264198 0.264198 1 0 0 cm
59.002 50.19 m 47.999 40.455 l S Q
0.724681 w
q 1 -0.264198 0.264198 1 0 0 cm
64.004 44.105 m 53.415 34.741 l S Q
0.768463 w
q 1 -0.264198 0.264198 1 0 0 cm
64.004 44.105 m 64.859 44.858 64.391 46.793 62.95 48.42 c 61.511 50.052
 59.653 50.756 58.797 50.003 c 57.939 49.245 58.418 47.313 59.857 45.681
 c 61.296 44.05 63.157 43.346 64.004 44.105 c S Q
2.226539 w
q 1 0.141238 -0.141238 1 0 0 cm
111.513 -4.281 m 107.328 -8.796 l S Q
1 J
q 1 0.141238 -0.141238 1 0 0 cm
107.328 -8.796 m 109.332 -13.829 l S Q
q 1 0.141238 -0.141238 1 0 0 cm
111.513 -4.281 m 116.772 -5.126 l S Q
2.226403 w
q 1 0.141238 -0.141238 1 0 0 cm
115.12 -15.134 m 109.332 -13.829 l S Q
2.226539 w
q 1 0.141238 -0.141238 1 0 0 cm
119.461 -10.04 m 116.772 -5.126 l S Q
Q Q
showpage
%%Trailer
end restore
%%EOF
