%!PS-Adobe-3.0 EPSF-3.0
%%Creator: cairo 1.15.6 (http://cairographics.org)
%%CreationDate: Fri Dec 15 17:14:38 2017
%%Pages: 1
%%DocumentData: Clean7Bit
%%LanguageLevel: 2
%%BoundingBox: 0 0 82 81
%%EndComments
%%BeginProlog
save
50 dict begin
/q { gsave } bind def
/Q { grestore } bind def
/cm { 6 array astore concat } bind def
/w { setlinewidth } bind def
/J { setlinecap } bind def
/j { setlinejoin } bind def
/M { setmiterlimit } bind def
/d { setdash } bind def
/m { moveto } bind def
/l { lineto } bind def
/c { curveto } bind def
/h { closepath } bind def
/re { exch dup neg 3 1 roll 5 3 roll moveto 0 rlineto
      0 exch rlineto 0 rlineto closepath } bind def
/S { stroke } bind def
/f { fill } bind def
/f* { eofill } bind def
/n { newpath } bind def
/W { clip } bind def
/W* { eoclip } bind def
/BT { } bind def
/ET { } bind def
/pdfmark where { pop globaldict /?pdfmark /exec load put }
    { globaldict begin /?pdfmark /pop load def /pdfmark
    /cleartomark load def end } ifelse
/BDC { mark 3 1 roll /BDC pdfmark } bind def
/EMC { mark /EMC pdfmark } bind def
/cairo_store_point { /cairo_point_y exch def /cairo_point_x exch def } def
/Tj { show currentpoint cairo_store_point } bind def
/TJ {
  {
    dup
    type /stringtype eq
    { show } { -0.001 mul 0 cairo_font_matrix dtransform rmoveto } ifelse
  } forall
  currentpoint cairo_store_point
} bind def
/cairo_selectfont { cairo_font_matrix aload pop pop pop 0 0 6 array astore
    cairo_font exch selectfont cairo_point_x cairo_point_y moveto } bind def
/Tf { pop /cairo_font exch def /cairo_font_matrix where
      { pop cairo_selectfont } if } bind def
/Td { matrix translate cairo_font_matrix matrix concatmatrix dup
      /cairo_font_matrix exch def dup 4 get exch 5 get cairo_store_point
      /cairo_font where { pop cairo_selectfont } if } bind def
/Tm { 2 copy 8 2 roll 6 array astore /cairo_font_matrix exch def
      cairo_store_point /cairo_font where { pop cairo_selectfont } if } bind def
/g { setgray } bind def
/rg { setrgbcolor } bind def
/d1 { setcachedevice } bind def
/cairo_flush_ascii85_file { cairo_ascii85_file status { cairo_ascii85_file flushfile } if } def
/cairo_image { image cairo_flush_ascii85_file } def
/cairo_imagemask { imagemask cairo_flush_ascii85_file } def
%%EndProlog
%%BeginSetup
%%EndSetup
%%Page: 1 1
%%BeginPageSetup
%%PageBoundingBox: 0 0 82 81
%%EndPageSetup
q 0 0 82 81 rectclip
1 0 0 -1 0 81 cm q
0.309804 0.505882 0.741176 rg
1.734 77.777 m 1.734 76.48 5.211 75.426 9.48 75.438 c 13.762 75.441 17.223
 76.504 17.223 77.801 c 17.211 79.102 13.742 80.145 9.461 80.141 c 5.18 
80.133 1.715 79.07 1.734 77.777 c h
1.734 77.777 m f*
0 g
1.15681 w
0 J
1 j
[] 0.0 d
10 M q -0.879083 -0.626793 1 -0.551003 0 0 cm
-70.495 -60.518 m -69.208 -59.387 -69.916 -56.469 -72.079 -54.023 c -74.244
 -51.567 -77.048 -50.505 -78.338 -51.639 c -79.626 -52.783 -78.904 -55.688
 -76.739 -58.143 c -74.574 -60.599 -71.773 -61.665 -70.495 -60.518 c S Q
0.309804 0.505882 0.741176 rg
1.563 59.758 m 17.625 59.781 l 17.516 77.555 l 1.453 77.531 l h
1.563 59.758 m f*
1.398 59.758 m 1.395 58.156 4.957 56.859 9.328 56.875 c 13.711 56.879 17.242
 58.176 17.246 59.777 c 17.227 61.379 13.68 62.668 9.293 62.664 c 4.934 
62.66 1.391 61.352 1.398 59.758 c h
1.398 59.758 m f*
0 g
1.112844 w
q -0.879083 -0.626793 1 -0.551003 0 0 cm
-62.088 -37.264 m -78.654 -51.917 l S Q
1.090902 w
q -0.879083 -0.626793 1 -0.551003 0 0 cm
-54.558 -46.426 m -70.495 -60.518 l S Q
1.15681 w
q -0.879083 -0.626793 1 -0.551003 0 0 cm
-54.558 -46.426 m -53.268 -45.292 -53.975 -42.374 -56.144 -39.929 c -58.309
 -37.473 -61.111 -36.413 -62.397 -37.544 c -63.685 -38.688 -62.969 -41.593
 -60.802 -44.052 c -58.637 -46.507 -55.835 -47.568 -54.558 -46.426 c S Q
1.952693 w
q 1 0 0 1 0 0 cm
9.617 36.402 m 9.617 59.477 l S Q
2.278619 w
q 1 0 0 1 0 0 cm
56.332 20.941 m 70.242 9.91 l S Q
q 1 0 0 1 0 0 cm
9.797 36.773 m 34.383 20.582 l S Q
q 1 0 0 1 0 0 cm
31.266 20.102 m 59.207 20.582 l S Q
0.309804 0.505882 0.741176 rg
50.605 19.367 m 51.219 17.074 53.813 15.754 56.375 16.445 c 58.938 17.133
 60.512 19.563 59.898 21.855 c 59.285 24.148 56.707 25.469 54.141 24.781
 c 51.578 24.09 49.988 21.66 50.605 19.367 c h
50.605 19.367 m f*
0 g
0.749546 w
q 1 0 0 1 0 0 cm
50.605 19.367 m 51.219 17.074 53.813 15.754 56.375 16.445 c 58.938 17.133
 60.512 19.563 59.898 21.855 c 59.285 24.148 56.707 25.469 54.141 24.781
 c 51.578 24.09 49.988 21.66 50.605 19.367 c S Q
2.247308 w
q 1 -0.0344051 0.0344051 1 0 0 cm
71.667 14.673 m 67.441 10.117 l S Q
1 J
q 1 -0.0344051 0.0344051 1 0 0 cm
67.441 10.117 m 69.463 5.038 l S Q
q 1 -0.0344051 0.0344051 1 0 0 cm
71.667 14.673 m 76.978 13.82 l S Q
2.24717 w
q 1 -0.0344051 0.0344051 1 0 0 cm
75.31 3.72 m 69.463 5.038 l S Q
2.247308 w
q 1 -0.0344051 0.0344051 1 0 0 cm
79.691 8.863 m 76.978 13.82 l S Q
0.309804 0.505882 0.741176 rg
4.617 29.563 m 5.574 30.039 5.551 32.031 4.559 33.996 c 3.566 35.973 1.988
 37.18 1.031 36.703 c 0.074 36.223 0.109 34.234 1.098 32.262 c 2.09 30.285
 3.668 29.078 4.617 29.563 c h
4.617 29.563 m f*
0 g
0.768463 w
0 J
q 1 -0.264198 0.264198 1 0 0 cm
-2.744 28.795 m -1.889 29.548 -2.358 31.486 -3.798 33.11 c -5.237 34.741
 -7.1 35.448 -7.955 34.695 c -8.809 33.934 -8.331 32.006 -6.892 30.374 c
 -5.453 28.743 -3.594 28.035 -2.744 28.795 c S Q
0.309804 0.505882 0.741176 rg
17.93 36.105 m 14.215 43.516 l 1.145 36.93 l 4.863 29.52 l h
17.93 36.105 m f*
17.969 36.031 m 19.148 36.617 19.285 38.738 18.266 40.75 c 17.254 42.773
 15.484 43.926 14.305 43.34 c 13.129 42.742 12.996 40.629 14.012 38.609 
c 15.02 36.598 16.797 35.441 17.969 36.031 c h
17.969 36.031 m f*
0 g
0.739256 w
q 1 -0.264198 0.264198 1 0 0 cm
2.842 44.243 m -8.165 34.511 l S Q
0.724681 w
q 1 -0.264198 0.264198 1 0 0 cm
7.844 38.158 m -2.744 28.795 l S Q
0.768463 w
q 1 -0.264198 0.264198 1 0 0 cm
7.844 38.158 m 8.7 38.912 8.227 40.849 6.79 42.474 c 5.351 44.105 3.49 
44.809 2.633 44.059 c 1.779 43.298 2.254 41.369 3.693 39.737 c 5.133 38.102
 6.994 37.399 7.844 38.158 c S Q
0.309804 0.505882 0.741176 rg
28.344 14.285 m 29.301 14.762 29.277 16.754 28.285 18.723 c 27.293 20.695
 25.715 21.906 24.758 21.43 c 23.801 20.945 23.836 18.957 24.824 16.984 
c 25.816 15.008 27.395 13.801 28.344 14.285 c h
28.344 14.285 m f*
0 g
q 1 -0.264198 0.264198 1 0 0 cm
23.206 20.377 m 24.063 21.127 23.594 23.065 22.153 24.689 c 20.714 26.32
 18.852 27.027 18 26.275 c 17.142 25.513 17.62 23.585 19.059 21.953 c 20.498
 20.322 22.356 19.617 23.206 20.377 c S Q
0.309804 0.505882 0.741176 rg
41.656 20.828 m 37.941 28.238 l 24.871 21.656 l 28.59 14.246 l h
41.656 20.828 m f*
41.695 20.754 m 42.875 21.34 43.012 23.461 41.992 25.477 c 40.98 27.496
 39.211 28.652 38.031 28.063 c 36.855 27.465 36.723 25.355 37.738 23.332
 c 38.746 21.32 40.523 20.164 41.695 20.754 c h
41.695 20.754 m f*
0 g
0.739256 w
q 1 -0.264198 0.264198 1 0 0 cm
28.793 35.826 m 17.787 26.09 l S Q
0.724681 w
q 1 -0.264198 0.264198 1 0 0 cm
33.796 29.737 m 23.206 20.377 l S Q
0.768463 w
q 1 -0.264198 0.264198 1 0 0 cm
33.796 29.737 m 34.651 30.491 34.179 32.428 32.742 34.053 c 31.303 35.684
 29.44 36.391 28.585 35.638 c 27.731 34.877 28.205 32.948 29.644 31.316 
c 31.083 29.685 32.946 28.978 33.796 29.737 c S Q
Q Q
showpage
%%Trailer
end restore
%%EOF
