%!PS-Adobe-3.0 EPSF-3.0
%%Creator: cairo 1.15.6 (http://cairographics.org)
%%CreationDate: Fri Dec 15 17:18:50 2017
%%Pages: 1
%%DocumentData: Clean7Bit
%%LanguageLevel: 2
%%BoundingBox: 0 0 97 35
%%EndComments
%%BeginProlog
save
50 dict begin
/q { gsave } bind def
/Q { grestore } bind def
/cm { 6 array astore concat } bind def
/w { setlinewidth } bind def
/J { setlinecap } bind def
/j { setlinejoin } bind def
/M { setmiterlimit } bind def
/d { setdash } bind def
/m { moveto } bind def
/l { lineto } bind def
/c { curveto } bind def
/h { closepath } bind def
/re { exch dup neg 3 1 roll 5 3 roll moveto 0 rlineto
      0 exch rlineto 0 rlineto closepath } bind def
/S { stroke } bind def
/f { fill } bind def
/f* { eofill } bind def
/n { newpath } bind def
/W { clip } bind def
/W* { eoclip } bind def
/BT { } bind def
/ET { } bind def
/pdfmark where { pop globaldict /?pdfmark /exec load put }
    { globaldict begin /?pdfmark /pop load def /pdfmark
    /cleartomark load def end } ifelse
/BDC { mark 3 1 roll /BDC pdfmark } bind def
/EMC { mark /EMC pdfmark } bind def
/cairo_store_point { /cairo_point_y exch def /cairo_point_x exch def } def
/Tj { show currentpoint cairo_store_point } bind def
/TJ {
  {
    dup
    type /stringtype eq
    { show } { -0.001 mul 0 cairo_font_matrix dtransform rmoveto } ifelse
  } forall
  currentpoint cairo_store_point
} bind def
/cairo_selectfont { cairo_font_matrix aload pop pop pop 0 0 6 array astore
    cairo_font exch selectfont cairo_point_x cairo_point_y moveto } bind def
/Tf { pop /cairo_font exch def /cairo_font_matrix where
      { pop cairo_selectfont } if } bind def
/Td { matrix translate cairo_font_matrix matrix concatmatrix dup
      /cairo_font_matrix exch def dup 4 get exch 5 get cairo_store_point
      /cairo_font where { pop cairo_selectfont } if } bind def
/Tm { 2 copy 8 2 roll 6 array astore /cairo_font_matrix exch def
      cairo_store_point /cairo_font where { pop cairo_selectfont } if } bind def
/g { setgray } bind def
/rg { setrgbcolor } bind def
/d1 { setcachedevice } bind def
/cairo_flush_ascii85_file { cairo_ascii85_file status { cairo_ascii85_file flushfile } if } def
/cairo_image { image cairo_flush_ascii85_file } def
/cairo_imagemask { imagemask cairo_flush_ascii85_file } def
%%EndProlog
%%BeginSetup
%%EndSetup
%%Page: 1 1
%%BeginPageSetup
%%PageBoundingBox: 0 0 97 35
%%EndPageSetup
q 0 0 97 35 rectclip
1 0 0 -1 0 35 cm q
0.309804 0.505882 0.741176 rg
22.438 26.391 m 23.309 23.156 26.742 21.266 30.113 22.164 c 33.473 23.066
 35.496 26.422 34.625 29.66 c 33.77 32.883 30.34 34.773 26.965 33.871 c 
23.605 32.973 21.582 29.617 22.438 26.391 c h
22.438 26.391 m f*
0.415686 0.584314 0.862745 rg
22.438 26.391 m 23.309 23.156 26.742 21.266 30.113 22.164 c 33.473 23.066
 35.496 26.422 34.625 29.66 c 33.77 32.883 30.34 34.773 26.965 33.871 c 
23.605 32.973 21.582 29.617 22.438 26.391 c f
0 g
0.749546 w
0 J
1 j
[] 0.0 d
4 M q 1 0 0 1 0 0 cm
22.438 26.391 m 23.309 23.156 26.742 21.266 30.113 22.164 c 33.473 23.066
 35.496 26.422 34.625 29.66 c 33.77 32.883 30.34 34.773 26.965 33.871 c 
23.605 32.973 21.582 29.617 22.438 26.391 c S Q
0.309804 0.505882 0.741176 rg
78.656 26.379 m 79.512 23.141 82.973 21.25 86.379 22.164 c 89.766 23.078
 91.82 26.438 90.965 29.676 c 90.094 32.898 86.633 34.789 83.246 33.871 
c 79.84 32.957 77.789 29.602 78.656 26.379 c h
78.656 26.379 m f*
0.415686 0.584314 0.862745 rg
78.656 26.379 m 79.512 23.141 82.973 21.25 86.379 22.164 c 89.766 23.078
 91.82 26.438 90.965 29.676 c 90.094 32.898 86.633 34.789 83.246 33.871 
c 79.84 32.957 77.789 29.602 78.656 26.379 c f
0 g
q 1 0 0 1 0 0 cm
78.656 26.379 m 79.512 23.141 82.973 21.25 86.379 22.164 c 89.766 23.078
 91.82 26.438 90.965 29.676 c 90.094 32.898 86.633 34.789 83.246 33.871 
c 79.84 32.957 77.789 29.602 78.656 26.379 c S Q
0.309804 0.505882 0.741176 rg
4.957 6.754 m 5.828 3.523 9.285 1.641 12.688 2.551 c 16.082 3.465 18.137
 6.82 17.273 10.051 c 16.402 13.281 12.949 15.164 9.547 14.258 c 6.148 13.344
 4.098 9.984 4.957 6.754 c h
4.957 6.754 m f*
0.415686 0.584314 0.862745 rg
4.957 6.754 m 5.828 3.523 9.285 1.641 12.688 2.551 c 16.082 3.465 18.137
 6.82 17.273 10.051 c 16.402 13.281 12.949 15.164 9.547 14.258 c 6.148 13.344
 4.098 9.984 4.957 6.754 c f
0 g
q 1 0 0 1 0 0 cm
4.957 6.754 m 5.828 3.523 9.285 1.641 12.688 2.551 c 16.082 3.465 18.137
 6.82 17.273 10.051 c 16.402 13.281 12.949 15.164 9.547 14.258 c 6.148 13.344
 4.098 9.984 4.957 6.754 c S Q
0.47451 0.741176 0.87451 rg
0.668 0.305 m 23.688 26.875 l 95.609 26.875 l 72.602 0.305 l h
0.668 0.305 m f*
0 g
0.61037 w
0 j
8 M q 1 0 0 1 0 0 cm
0.668 0.305 m 23.688 26.875 l 95.609 26.875 l 72.602 0.305 l h
0.668 0.305 m S Q
Q Q
showpage
%%Trailer
end restore
%%EOF
