%!PS-Adobe-3.0 EPSF-3.0
%%Creator: cairo 1.14.1 (http://cairographics.org)
%%CreationDate: Mon Dec 04 10:22:51 2017
%%Pages: 1
%%DocumentData: Clean7Bit
%%LanguageLevel: 2
%%BoundingBox: 4 80 380 309
%%EndComments
%%BeginProlog
save
50 dict begin
/q { gsave } bind def
/Q { grestore } bind def
/cm { 6 array astore concat } bind def
/w { setlinewidth } bind def
/J { setlinecap } bind def
/j { setlinejoin } bind def
/M { setmiterlimit } bind def
/d { setdash } bind def
/m { moveto } bind def
/l { lineto } bind def
/c { curveto } bind def
/h { closepath } bind def
/re { exch dup neg 3 1 roll 5 3 roll moveto 0 rlineto
      0 exch rlineto 0 rlineto closepath } bind def
/S { stroke } bind def
/f { fill } bind def
/f* { eofill } bind def
/n { newpath } bind def
/W { clip } bind def
/W* { eoclip } bind def
/BT { } bind def
/ET { } bind def
/pdfmark where { pop globaldict /?pdfmark /exec load put }
    { globaldict begin /?pdfmark /pop load def /pdfmark
    /cleartomark load def end } ifelse
/BDC { mark 3 1 roll /BDC pdfmark } bind def
/EMC { mark /EMC pdfmark } bind def
/cairo_store_point { /cairo_point_y exch def /cairo_point_x exch def } def
/Tj { show currentpoint cairo_store_point } bind def
/TJ {
  {
    dup
    type /stringtype eq
    { show } { -0.001 mul 0 cairo_font_matrix dtransform rmoveto } ifelse
  } forall
  currentpoint cairo_store_point
} bind def
/cairo_selectfont { cairo_font_matrix aload pop pop pop 0 0 6 array astore
    cairo_font exch selectfont cairo_point_x cairo_point_y moveto } bind def
/Tf { pop /cairo_font exch def /cairo_font_matrix where
      { pop cairo_selectfont } if } bind def
/Td { matrix translate cairo_font_matrix matrix concatmatrix dup
      /cairo_font_matrix exch def dup 4 get exch 5 get cairo_store_point
      /cairo_font where { pop cairo_selectfont } if } bind def
/Tm { 2 copy 8 2 roll 6 array astore /cairo_font_matrix exch def
      cairo_store_point /cairo_font where { pop cairo_selectfont } if } bind def
/g { setgray } bind def
/rg { setrgbcolor } bind def
/d1 { setcachedevice } bind def
%%EndProlog
%%BeginSetup
%%EndSetup
%%Page: 1 1
%%BeginPageSetup
%%PageBoundingBox: 4 80 380 309
%%EndPageSetup
q 4 80 376 229 rectclip q
0.2 g
6.434 243.233 m 4.152 243.518 3.594 244.987 4.801 247.518 c 5.289 248.549
 10.316 254.534 15.969 260.819 c 21.621 267.108 26.184 272.541 26.109 272.897
 c 26.039 273.252 21.797 278.151 16.691 283.784 c 5.508 296.12 4.547 297.377
 4.547 299.702 c 4.547 301.502 l 19.258 301.905 l 32.406 302.268 34.09 302.424
 35.117 303.362 c 39.398 307.291 43.105 307.807 46.035 304.877 c 47.746 
303.166 47.977 302.58 47.977 299.963 c 47.977 297.346 47.746 296.76 46.035
 295.049 c 43.07 292.084 40.066 292.409 36.156 296.108 c 34.332 297.834 
l 23.988 297.561 l 18.301 297.413 13.398 297.041 13.098 296.741 c 12.371
 296.014 13.453 294.604 22.832 284.022 c 32.363 273.272 32.531 273.014 31.359
 271.077 c 30.871 270.276 26.762 265.483 22.227 260.42 c 12.211 249.252 
12.133 249.147 13.188 248.483 c 13.621 248.205 28.441 247.975 46.121 247.971
 c 78.262 247.963 l 78.262 256.729 l 78.262 261.549 78.434 273.627 78.641
 283.577 c 78.992 300.346 77.945 300.955 79.695 302.131 c 80.273 302.877
 84.996 300.405 97.848 288.53 c 104.984 281.932 111.258 276.534 111.789 
276.534 c 112.32 276.534 118.445 282.194 125.406 289.108 c 137.082 300.709
 140.238 302.061 140.961 301.643 c 140.961 301.643 141.984 301.436 142.008
 301.034 c 142.18 298.272 142.457 290.108 142.457 290.108 c 142.469 289.784
 142.832 274.936 142.836 270.534 c 142.836 266.135 143.004 259.256 143.211
 255.248 c 143.582 247.963 l 167.297 247.963 l 177.008 265.248 l 190.539
 289.346 192.191 292.674 191.746 294.967 c 190.496 301.381 190.57 302.1 
192.672 304.202 c 193.762 305.291 195.363 306.362 196.23 306.577 c 198.375
 307.116 201.398 305.6 202.863 303.256 c 204.031 301.381 204.063 300.237
 203.094 294.768 c 202.637 292.198 203.488 290.452 217.031 266.12 c 227.121
 247.987 l 238.887 247.975 l 250.656 247.963 l 251.063 270.338 l 251.469
 292.709 l 251.469 292.709 250.586 294.084 249.219 295.053 c 246.328 297.1
 244.953 300.807 246.559 304.186 c 247.605 306.397 250.082 307.76 252.527
 307.76 c 253.898 307.76 255.043 307.295 257.297 305.182 c 260.262 302.405
 l 269.406 302.092 l 282.09 301.659 283.32 301.284 288.348 296.276 c 291.66
 292.975 292.602 291.627 293.348 289.127 c 294.664 284.686 294.488 281.803
 292.539 275.932 c 290.82 270.756 290.816 270.737 291.906 269.209 c 294.09
 266.159 310.785 250.248 311.809 250.248 c 313.5 250.248 321.75 256.221 
322.82 258.221 c 323.137 258.815 322.918 260.6 322.219 263.116 c 320.336
 269.901 320.898 279.643 323.477 284.971 c 325.211 288.553 329.777 293.788
 333.82 296.827 c 339.527 301.116 347.621 302.276 347.621 302.276 c 347.621
 302.276 353.496 302.487 356.359 301.795 c 358.551 301.268 362.574 299.112
 362.574 299.112 c 368.395 296.362 373.777 290.85 376.547 285.358 c 378.648
 280.987 l 379.66 274.252 l 379.785 273.416 379.41 266.006 377.496 262.268
 c 376.313 259.959 373.754 255.366 370.582 252.248 c 363.426 245.217 357.41
 242.873 348.555 243.67 c 340.258 244.413 337.848 245.323 331.652 250.034
 c 329.43 251.725 327.117 253.1 326.508 253.096 c 325.902 253.092 322.48
 251.034 318.902 248.526 c 315.328 246.014 312.184 243.963 311.918 243.963
 c 310.496 243.963 286.238 267.666 284.676 270.58 c 284.148 271.569 284.418
 272.373 286.348 275.545 c 289.133 280.116 289.691 282.315 289.066 286.256
 c 288.504 289.811 286.781 292.561 283.82 294.631 c 281.996 295.905 280.723
 296.221 275.535 296.67 c 268.094 297.319 258.473 296.971 257.52 296.022
 c 257.023 295.526 256.715 288.705 256.398 271.221 c 256.16 257.959 255.832
 246.303 255.672 245.327 c 255.406 243.698 255.152 243.514 252.742 243.182
 c 248.551 242.608 226.867 242.76 225.723 243.373 c 224.414 244.077 221.629
 248.588 211.078 267.108 c 206.422 275.276 201.469 283.756 200.074 285.948
 c 197.539 289.928 l 196.043 288.127 l 195.219 287.135 191.746 281.358 188.32
 275.288 c 178.539 257.952 171.969 246.698 170.453 244.678 c 169.063 242.819
 l 155.52 242.827 l 141.367 242.838 139.684 242.987 139.176 244.307 c 139.008
 244.748 138.723 254.557 138.543 266.108 c 138.184 289.088 137.945 293.108
 136.945 293.108 c 136.145 293.108 126.164 283.018 121.195 277.19 c 117.688
 273.077 117.621 272.932 118.07 270.616 c 119.125 265.139 118.109 261.944
 114.758 260.209 c 112.344 258.959 109.816 259.53 107.223 261.905 c 104.965
 263.975 104.648 265.534 105.633 269.768 c 105.98 271.268 105.883 272.342
 105.285 273.577 c 104.383 275.44 85.586 294.248 84.625 294.248 c 84.305
 294.248 83.902 294.022 83.734 293.745 c 83.563 293.467 83.156 282.475 82.828
 269.319 c 82.504 256.159 82.109 244.979 81.953 244.475 c 81.738 243.784
 80.59 243.467 77.309 243.19 c 72.715 242.799 9.578 242.838 6.434 243.233
 c h
354.379 248.596 m 368.32 251.502 376.867 264.108 374.039 277.596 c 373.008
 282.498 371.129 285.963 367.309 290.006 c 363.703 293.823 359.5 295.905
 353.879 296.655 c 345.34 297.795 338.004 295.209 332.293 289.038 c 327.668
 284.041 326.098 280.315 325.805 273.616 c 325.602 268.979 325.746 267.717
 326.738 265.475 c 327.383 264.014 328.25 262.823 328.66 262.827 c 331.195
 262.85 341.141 270.545 343.227 274.096 c 345.172 277.413 347.66 279.393
 349.879 279.389 c 352.422 279.385 355.031 277.62 356.23 275.092 c 357.086
 273.288 357.145 272.592 356.602 270.768 c 355.535 267.209 353.762 266.248
 348.273 266.248 c 343.586 266.248 l 339.637 263.463 l 334.355 259.737 332.547
 257.971 332.547 256.534 c 332.547 253.252 342.586 248.12 349.234 248.002
 c 350.398 247.979 352.711 248.248 354.379 248.596 c h
114.832 263.963 m 117.313 266.444 115.781 270.479 112.359 270.479 c 109.688
 270.479 107.977 268.916 107.977 266.479 c 107.977 263.151 112.398 261.53
 114.832 263.963 c h
351.66 269.666 m 355.5 271.127 354.504 275.963 350.363 275.963 c 347.637
 275.963 346.832 275.155 346.832 272.401 c 346.832 270.666 347.102 270.104
 348.121 269.694 c 349.816 269.014 349.941 269.014 351.66 269.666 c h
44.547 297.678 m 45.922 299.049 46 300.413 44.801 302.123 c 43.004 304.686
 38.262 303.194 38.262 300.061 c 38.262 296.85 42.219 295.35 44.547 297.678
 c h
199.43 297.12 m 202.27 298.639 201.848 302.444 198.77 303.12 c 196.535 
303.612 195.125 303.057 194.363 301.381 c 192.863 298.088 196.121 295.35
 199.43 297.12 c h
255.262 298.151 m 256.254 299.381 255.953 302.33 255.102 303.409 c 252.164
 305.229 250.934 304.229 249.633 303.053 c 247.676 301.28 248.617 298.252
 251.457 297.198 c 253.055 296.604 254.258 296.905 255.262 298.151 c h
255.262 298.151 m f
0.666667 0 0 rg
15.156 188.506 m 13.461 186.538 8.91 195.1 9.141 200.084 c 9.328 204.092
 11.152 207.256 13.637 209.264 c 16.277 211.405 27.188 211.745 30.348 207.541
 c 36.023 200.588 33.547 189.245 24.824 187.057 c 23.695 162.975 24.316 
135.053 24.027 106.569 c 24.766 92.116 l 122.75 92.116 l 142.012 126.405
 l 168.855 174.205 172.133 180.811 171.246 185.362 c 168.773 198.084 168.918
 199.506 173.086 203.678 c 175.246 205.838 178.426 207.959 180.148 208.393
 c 184.402 209.459 190.398 206.455 193.301 201.803 c 195.625 198.08 195.688
 195.815 193.762 184.963 c 192.855 179.866 194.539 176.405 221.406 128.131
 c 241.422 92.166 l 264.766 92.139 l 288.113 92.116 l 288.922 136.498 l 
289.727 180.885 l 289.727 180.885 287.973 183.604 285.262 185.526 c 279.527
 189.592 276.801 196.944 279.98 203.651 c 282.063 208.034 286.977 210.741
 291.824 210.741 c 294.543 210.741 296.816 209.815 301.285 205.627 c 307.168
 200.112 l 325.309 199.495 l 350.473 198.639 352.73 197.01 363.453 189.389
 c 368.34 185.916 372.504 180.393 373.516 174.487 c 374.719 167.455 373.012
 160.209 368.109 153.78 c 365.117 149.85 359.941 145.483 357.91 141.702 
c 360.82 136.92 365.391 133.717 369.57 128.428 c 375.434 120.998 379.965
 111.018 378.902 101.612 c 378.043 93.995 375.309 84.905 366.691 82.12 c
 365.98 80.784 330.43 81.573 322.563 81.78 c 319.531 81.862 319.73 88.311
 321.23 92.498 c 327.445 92.686 357.875 91.76 359.82 91.92 c 360.953 92.01
 364.105 92.241 364.723 93.295 c 371.754 102.541 368.992 112.971 362.781
 120.413 c 356.383 128.073 345.082 137.795 342.25 142.213 c 341.313 143.959
 351.113 150.463 354.93 153.87 c 359.445 157.905 363.063 164.221 362.746
 170.272 c 362.449 175.901 358.457 181.366 353.902 184.694 c 349.348 188.022
 343.078 188.163 337.465 188.741 c 325.609 189.963 303.617 189.338 301.727
 187.452 c 300.742 186.467 300.133 172.94 299.504 138.252 c 299.031 111.944
 298.383 88.827 298.066 86.881 c 297.539 83.659 297.031 83.288 292.254 82.631
 c 283.938 81.491 240.922 81.799 238.652 83.014 c 236.051 84.405 230.527
 93.358 209.598 130.092 c 200.363 146.299 190.539 163.12 187.773 167.463
 c 182.738 175.366 l 179.773 171.791 l 178.145 169.827 171.25 158.362 164.453
 146.319 c 145.047 111.928 132.02 89.604 129.012 85.596 c 126.25 81.913 
l 48.445 81.928 l 20.371 81.936 15.887 81.104 14.883 83.717 c 13.539 120.045
 15.461 151.573 15.156 188.506 c h
26.328 194.76 m 29.051 197.483 29.203 200.186 26.828 203.577 c 23.266 208.663
 13.859 205.702 13.859 199.491 c 13.859 193.12 21.707 190.143 26.328 194.76
 c h
186.492 189.627 m 192.121 192.643 191.289 200.194 185.18 201.534 c 180.746
 202.506 177.953 201.405 176.441 198.088 c 173.465 191.553 179.926 186.116
 186.492 189.627 c h
297.25 191.678 m 299.219 194.12 298.625 199.963 296.93 202.104 c 291.102
 205.717 288.664 203.737 286.086 201.401 c 282.199 197.885 284.07 191.873
 289.703 189.784 c 292.875 188.604 295.254 189.202 297.25 191.678 c h
297.25 191.678 m f
Q Q
showpage
%%Trailer
end restore
%%EOF
