%!PS-Adobe-3.0 EPSF-3.0
%%Creator: cairo 1.14.1 (http://cairographics.org)
%%CreationDate: Mon Dec 04 10:23:11 2017
%%Pages: 1
%%DocumentData: Clean7Bit
%%LanguageLevel: 2
%%BoundingBox: 11 16 253 177
%%EndComments
%%BeginProlog
save
50 dict begin
/q { gsave } bind def
/Q { grestore } bind def
/cm { 6 array astore concat } bind def
/w { setlinewidth } bind def
/J { setlinecap } bind def
/j { setlinejoin } bind def
/M { setmiterlimit } bind def
/d { setdash } bind def
/m { moveto } bind def
/l { lineto } bind def
/c { curveto } bind def
/h { closepath } bind def
/re { exch dup neg 3 1 roll 5 3 roll moveto 0 rlineto
      0 exch rlineto 0 rlineto closepath } bind def
/S { stroke } bind def
/f { fill } bind def
/f* { eofill } bind def
/n { newpath } bind def
/W { clip } bind def
/W* { eoclip } bind def
/BT { } bind def
/ET { } bind def
/pdfmark where { pop globaldict /?pdfmark /exec load put }
    { globaldict begin /?pdfmark /pop load def /pdfmark
    /cleartomark load def end } ifelse
/BDC { mark 3 1 roll /BDC pdfmark } bind def
/EMC { mark /EMC pdfmark } bind def
/cairo_store_point { /cairo_point_y exch def /cairo_point_x exch def } def
/Tj { show currentpoint cairo_store_point } bind def
/TJ {
  {
    dup
    type /stringtype eq
    { show } { -0.001 mul 0 cairo_font_matrix dtransform rmoveto } ifelse
  } forall
  currentpoint cairo_store_point
} bind def
/cairo_selectfont { cairo_font_matrix aload pop pop pop 0 0 6 array astore
    cairo_font exch selectfont cairo_point_x cairo_point_y moveto } bind def
/Tf { pop /cairo_font exch def /cairo_font_matrix where
      { pop cairo_selectfont } if } bind def
/Td { matrix translate cairo_font_matrix matrix concatmatrix dup
      /cairo_font_matrix exch def dup 4 get exch 5 get cairo_store_point
      /cairo_font where { pop cairo_selectfont } if } bind def
/Tm { 2 copy 8 2 roll 6 array astore /cairo_font_matrix exch def
      cairo_store_point /cairo_font where { pop cairo_selectfont } if } bind def
/g { setgray } bind def
/rg { setrgbcolor } bind def
/d1 { setcachedevice } bind def
%%EndProlog
%%BeginSetup
%%EndSetup
%%Page: 1 1
%%BeginPageSetup
%%PageBoundingBox: 11 16 253 177
%%EndPageSetup
q 11 16 242 161 rectclip q
0.14902 0.345098 0.552941 rg
5.642432 w
0 J
0 j
[] 0.0 d
4 M q 0.958163 0 0 -1 0 190.9272 cm
21.623 99.473 m 50.385 72.563 80.154 46.328 110.849 20.406 c S Q
q 0.958163 0 0 -1 0 190.9272 cm
123.951 17.594 m 158.335 28.102 191.834 39.035 221.766 51.676 c S Q
q 0.958163 0 0 -1 0 190.9272 cm
128.33 45.961 m 131.506 45.453 217.779 61.449 218.961 62.02 c S Q
4.903673 w
1 j
q 0.958163 0 0 -1 0 190.9272 cm
224.4 46.703 m 216.336 69.633 l 227.327 68.918 l 232.778 52.762 l h
224.4 46.703 m S Q
5.642432 w
1 J
q 0.958163 0 0 -1 0 190.9272 cm
233.296 54.621 m 250.055 52.813 l 254.067 61.215 l S Q
q 0.958163 0 0 -1 0 190.9272 cm
228.444 68.59 m 236.663 83.422 l 246.973 80.465 l S Q
0 J
0 j
q 0.958163 0 0 -1 0 190.9272 cm
136.333 32.816 m 136.333 41.434 129.219 48.414 120.449 48.414 c 111.676
 48.414 104.562 41.434 104.562 32.816 c 104.562 24.203 111.676 17.223 120.449
 17.223 c 129.219 17.223 136.333 24.203 136.333 32.816 c h
136.333 32.816 m S Q
0 0.0627451 0.278431 rg
168.723 43.642 m 168.723 51.826 l 160.977 45.31 152.703 42.052 143.902 
42.052 c 137.512 42.052 132.52 43.658 128.922 46.876 c 125.324 50.134 123.527
 54.111 123.527 58.81 c 123.527 63.97 125.895 68.478 130.637 72.33 c 135.375
 76.181 142.293 78.107 151.391 78.107 c 153.848 78.107 156.512 77.935 159.391
 77.599 c 162.27 77.302 165.379 76.814 168.723 76.138 c 168.723 84.771 l
 168.723 87.689 167.367 90.228 164.66 92.388 c 161.949 94.544 157.887 95.626
 152.473 95.626 c 148.324 95.626 142.504 94.419 135.016 92.005 c 133.66 
91.583 132.793 91.373 132.414 91.373 c 131.734 91.373 131.145 91.626 130.637
 92.134 c 130.172 92.642 129.938 93.275 129.938 94.037 c 129.938 94.755 
130.148 95.33 130.57 95.751 c 131.164 96.388 133.555 97.255 137.746 98.353
 c 144.348 100.13 149.34 101.021 152.727 101.021 c 159.453 101.021 164.703
 99.349 168.469 96.005 c 172.234 92.705 174.117 88.958 174.117 84.771 c 
174.117 49.478 l 174.117 43.568 173.777 43.642 168.723 43.642 c h
168.723 70.677 m 166.227 71.396 163.578 71.927 160.785 72.267 c 157.992
 72.603 155.055 72.775 151.965 72.775 c 144.219 72.775 138.168 71.103 133.809
 67.759 c 130.508 65.263 128.859 62.279 128.859 58.81 c 128.859 55.591 130.105
 52.884 132.602 50.685 c 135.141 48.482 138.824 47.384 143.648 47.384 c 
148.262 47.384 152.535 48.29 156.469 50.111 c 160.449 51.974 164.531 54.915
 168.723 58.935 c h
168.723 70.677 m f
4.086395 w
q 0.958163 0 0 -1 0 190.9272 cm
176.09 147.285 m 176.09 139.102 l 168.005 145.617 159.371 148.875 150.186
 148.875 c 143.516 148.875 138.306 147.27 134.551 144.051 c 130.796 140.793
 128.921 136.816 128.921 132.117 c 128.921 126.957 131.392 122.449 136.341
 118.598 c 141.286 114.746 148.506 112.82 158.001 112.82 c 160.565 112.82
 163.346 112.992 166.35 113.328 c 169.355 113.625 172.6 114.113 176.09 114.789
 c 176.09 106.156 l 176.09 103.238 174.675 100.699 171.85 98.539 c 169.021
 96.383 164.781 95.301 159.13 95.301 c 154.801 95.301 148.726 96.508 140.911
 98.922 c 139.496 99.344 138.591 99.555 138.196 99.555 c 137.486 99.555 
136.871 99.301 136.341 98.793 c 135.856 98.285 135.611 97.652 135.611 96.891
 c 135.611 96.172 135.831 95.598 136.272 95.176 c 136.891 94.539 139.386
 93.672 143.761 92.574 c 150.65 90.797 155.861 89.906 159.395 89.906 c 166.415
 89.906 171.895 91.578 175.825 94.922 c 179.755 98.223 181.72 101.969 181.72
 106.156 c 181.72 141.449 l 181.72 147.359 181.365 147.285 176.09 147.285
 c h
176.09 120.25 m 173.485 119.531 170.721 119 167.806 118.66 c 164.891 118.324
 161.825 118.152 158.6 118.152 c 150.516 118.152 144.201 119.824 139.651
 123.168 c 136.206 125.664 134.486 128.648 134.486 132.117 c 134.486 135.336
 135.786 138.043 138.391 140.242 c 141.041 142.445 144.886 143.543 149.921
 143.543 c 154.735 143.543 159.195 142.637 163.301 140.816 c 167.455 138.953
 171.715 136.012 176.09 131.992 c h
176.09 120.25 m S Q
85.23 99.115 m 85.23 85.658 l 92.172 91.923 97.355 95.943 100.781 97.72
 c 104.254 99.54 107.449 100.451 110.367 100.451 c 113.543 100.451 116.484
 99.369 119.191 97.212 c 121.941 95.095 123.316 93.486 123.316 92.388 c 
123.316 91.583 123.043 90.908 122.492 90.357 c 121.984 89.849 121.328 89.595
 120.523 89.595 c 120.102 89.595 119.742 89.658 119.445 89.787 c 119.148
 89.955 118.598 90.439 117.793 91.244 c 116.313 92.724 115.023 93.74 113.922
 94.29 c 112.824 94.841 111.742 95.119 110.684 95.119 c 108.359 95.119 105.543
 94.185 102.242 92.326 c 98.984 90.462 93.313 85.912 85.23 78.677 c 85.23
 42.517 l 85.23 41.298 79.898 41.056 79.898 42.224 c 79.898 94.435 l 79.898
 98.81 79.246 99.115 85.23 99.115 c h
85.23 99.115 m f
q 0.958163 0 0 -1 0 190.9272 cm
88.952 91.813 m 88.952 105.27 l 96.196 99.004 101.606 94.984 105.182 93.207
 c 108.806 91.387 112.141 90.477 115.186 90.477 c 118.501 90.477 121.571
 91.559 124.396 93.715 c 127.266 95.832 128.701 97.441 128.701 98.539 c 
128.701 99.344 128.415 100.02 127.841 100.57 c 127.311 101.078 126.626 101.332
 125.786 101.332 c 125.346 101.332 124.971 101.27 124.661 101.141 c 124.351
 100.973 123.776 100.488 122.936 99.684 c 121.391 98.203 120.046 97.188 
118.896 96.637 c 117.751 96.086 116.621 95.809 115.516 95.809 c 113.091 
95.809 110.151 96.742 106.706 98.602 c 103.306 100.465 97.387 105.016 88.952
 112.25 c 88.952 148.41 l 88.952 149.629 83.387 149.871 83.387 148.703 c
 83.387 96.492 l 83.387 92.117 82.706 91.813 88.952 91.813 c h
88.952 91.813 m S Q
227.531 43.58 m 227.531 51.763 l 219.785 45.248 211.512 41.99 202.711 41.99
 c 196.32 41.99 191.328 43.595 187.73 46.814 c 184.133 50.072 182.336 54.048
 182.336 58.748 c 182.336 63.908 184.703 68.415 189.445 72.267 c 194.184
 76.119 201.102 78.044 210.203 78.044 c 212.656 78.044 215.32 77.873 218.199
 77.537 c 221.078 77.24 224.188 76.751 227.531 76.076 c 227.531 84.708 l
 227.531 87.626 226.176 90.165 223.469 92.326 c 220.758 94.482 216.695 95.564
 211.281 95.564 c 207.133 95.564 201.316 94.357 193.824 91.943 c 192.469
 91.521 191.602 91.31 191.223 91.31 c 190.543 91.31 189.953 91.564 189.445
 92.072 c 188.98 92.58 188.746 93.212 188.746 93.974 c 188.746 94.697 188.957
 95.267 189.383 95.689 c 189.973 96.326 192.363 97.193 196.555 98.29 c 203.156
 100.068 208.148 100.958 211.535 100.958 c 218.262 100.958 223.512 99.287
 227.277 95.943 c 231.043 92.642 232.926 88.896 232.926 84.708 c 232.926
 49.415 l 232.926 43.505 232.586 43.58 227.531 43.58 c h
227.531 70.615 m 225.035 71.337 222.391 71.865 219.598 72.205 c 216.805
 72.54 213.863 72.712 210.773 72.712 c 203.027 72.712 196.977 71.04 192.617
 67.697 c 189.316 65.201 187.668 62.216 187.668 58.748 c 187.668 55.529 
188.914 52.822 191.414 50.623 c 193.953 48.419 197.633 47.322 202.457 47.322
 c 207.07 47.322 211.344 48.232 215.281 50.048 c 219.258 51.912 223.34 54.853
 227.531 58.873 c h
227.531 70.615 m f
q 0.958163 0 0 -1 0 190.9272 cm
237.466 147.348 m 237.466 139.164 l 229.382 145.68 220.747 148.938 211.562
 148.938 c 204.892 148.938 199.682 147.332 195.927 144.113 c 192.173 140.855
 190.297 136.879 190.297 132.18 c 190.297 127.02 192.768 122.512 197.717
 118.66 c 202.662 114.809 209.882 112.883 219.381 112.883 c 221.942 112.883
 224.722 113.055 227.727 113.391 c 230.731 113.688 233.976 114.176 237.466
 114.852 c 237.466 106.219 l 237.466 103.301 236.051 100.762 233.226 98.602
 c 230.397 96.445 226.157 95.363 220.507 95.363 c 216.177 95.363 210.107
 96.57 202.287 98.984 c 200.873 99.406 199.968 99.617 199.572 99.617 c 198.863
 99.617 198.247 99.363 197.717 98.855 c 197.232 98.348 196.987 97.715 196.987
 96.953 c 196.987 96.23 197.208 95.66 197.652 95.238 c 198.268 94.602 200.763
 93.734 205.137 92.637 c 212.027 90.859 217.237 89.969 220.772 89.969 c 
227.792 89.969 233.271 91.641 237.201 94.984 c 241.131 98.285 243.096 102.031
 243.096 106.219 c 243.096 141.512 l 243.096 147.422 242.742 147.348 237.466
 147.348 c h
237.466 120.313 m 234.861 119.59 232.101 119.063 229.186 118.723 c 226.271
 118.387 223.201 118.215 219.977 118.215 c 211.892 118.215 205.577 119.887
 201.028 123.23 c 197.583 125.727 195.862 128.711 195.862 132.18 c 195.862
 135.398 197.163 138.105 199.772 140.305 c 202.422 142.508 206.262 143.605
 211.297 143.605 c 216.112 143.605 220.572 142.695 224.681 140.879 c 228.831
 139.016 233.092 136.074 237.466 132.055 c h
237.466 120.313 m S Q
250.121 122.158 m 250.121 49.478 l 250.121 43.15 250.469 43.697 244.758
 43.697 c 244.758 43.697 244.789 47.302 244.789 49.427 c 244.789 116.763
 l 242.227 116.763 l 240.957 116.763 240.027 117.017 239.434 117.525 c 238.883
 118.033 238.609 118.689 238.609 119.494 c 238.609 120.255 238.883 120.888
 239.434 121.396 c 239.984 121.904 240.914 122.158 242.227 122.158 c h
250.121 122.158 m f
4 w
q 1 0 0 -1 0 190.9272 cm
250.121 68.77 m 250.121 141.449 l 250.121 147.777 250.469 147.23 244.758
 147.23 c 244.758 147.23 244.789 143.625 244.789 141.5 c 244.789 74.164 
l 242.227 74.164 l 240.957 74.164 240.027 73.91 239.434 73.402 c 238.883
 72.895 238.609 72.238 238.609 71.434 c 238.609 70.672 238.883 70.039 239.434
 69.531 c 239.984 69.023 240.914 68.77 242.227 68.77 c h
250.121 68.77 m S Q
0.14902 0.34902 0.556863 rg
63.211 59.333 m 73.375 74.013 l 73.711 74.478 74.895 76.142 74.938 76.9
 c 75.039 78.568 74.965 79.81 74.969 80.787 c 75.133 82.08 73.758 79.841
 71.527 77.173 c 62.543 63.81 l 64.832 66.357 59.813 62.306 63.211 59.333
 c h
63.211 59.333 m f
0.14902 0.345098 0.552941 rg
2.387549 w
q 1 0 0 -1 0 190.9272 cm
63.211 131.594 m 73.375 116.914 l 73.711 116.449 74.895 114.785 74.938 
114.027 c 75.039 112.359 74.965 111.117 74.969 110.141 c 75.133 108.848 
73.758 111.086 71.527 113.754 c 62.543 127.117 l 64.832 124.57 59.813 128.621
 63.211 131.594 c h
63.211 131.594 m S Q
0 0.0627451 0.278431 rg
62.16 89.341 m 62.16 99.115 l 68.184 99.115 67.492 98.427 67.492 93.72 
c 67.492 40.462 l 67.492 36.908 66.73 33.736 65.207 30.943 c 64.191 29.08
 62.5 27.154 60.129 25.165 c 57.762 23.177 55.602 21.759 53.656 20.912 c
 51.711 20.068 49.105 19.642 45.848 19.642 c 27.539 19.642 l 26.27 19.642
 25.363 19.896 24.813 20.404 c 24.262 20.869 23.984 21.505 23.984 22.31 
c 23.984 23.115 24.262 23.771 24.813 24.279 c 25.363 24.787 26.27 25.04 
27.539 25.04 c 46.039 24.974 l 49.172 24.974 51.984 25.779 54.48 27.388 
c 57.02 28.994 59.113 31.345 60.766 34.435 c 61.695 36.212 62.16 38.474 
62.16 41.224 c 62.16 57.22 l 56.449 49.392 49.086 45.478 40.07 45.478 c 
32.75 45.478 26.426 48.185 21.094 53.603 c 15.801 59.064 13.156 65.623 13.156
 73.283 c 13.156 80.939 15.801 87.478 21.094 92.896 c 26.426 98.31 32.75
 101.021 40.07 101.021 c 49.086 101.021 56.449 97.126 62.16 89.341 c h
62.16 73.283 m 62.16 79.544 60.004 84.833 55.688 89.15 c 51.414 93.466 
46.293 95.626 40.324 95.626 c 34.359 95.626 29.238 93.447 24.965 89.087 
c 20.691 84.771 18.555 79.501 18.555 73.283 c 18.555 67.017 20.691 61.708
 24.965 57.349 c 29.238 53.033 34.359 50.873 40.324 50.873 c 46.293 50.873
 51.414 53.033 55.688 57.349 c 60.004 61.708 62.16 67.017 62.16 73.283 c
 h
62.16 73.283 m f
4.086395 w
q 0.958163 0 0 -1 0 190.9272 cm
64.874 101.586 m 64.874 91.813 l 71.161 91.813 70.439 92.5 70.439 97.207
 c 70.439 150.465 l 70.439 154.02 69.644 157.191 68.054 159.984 c 66.994
 161.848 65.229 163.773 62.754 165.762 c 60.284 167.75 58.029 169.168 55.999
 170.016 c 53.969 170.859 51.25 171.285 47.85 171.285 c 28.742 171.285 l
 27.417 171.285 26.471 171.031 25.896 170.523 c 25.321 170.059 25.032 169.422
 25.032 168.617 c 25.032 167.813 25.321 167.156 25.896 166.648 c 26.471 
166.141 27.417 165.887 28.742 165.887 c 48.049 165.953 l 51.319 165.953 
54.254 165.148 56.859 163.539 c 59.509 161.934 61.694 159.582 63.419 156.492
 c 64.389 154.715 64.874 152.453 64.874 149.703 c 64.874 133.707 l 58.914
 141.535 51.229 145.449 41.82 145.449 c 34.18 145.449 27.58 142.742 22.015
 137.324 c 16.491 131.863 13.731 125.305 13.731 117.645 c 13.731 109.988
 16.491 103.449 22.015 98.031 c 27.58 92.617 34.18 89.906 41.82 89.906 c
 51.229 89.906 58.914 93.801 64.874 101.586 c h
64.874 117.645 m 64.874 111.383 62.624 106.094 58.119 101.777 c 53.659 
97.461 48.314 95.301 42.085 95.301 c 35.86 95.301 30.515 97.48 26.055 101.84
 c 21.595 106.156 19.365 111.426 19.365 117.645 c 19.365 123.91 21.595 129.219
 26.055 133.578 c 30.515 137.895 35.86 140.055 42.085 140.055 c 48.314 140.055
 53.659 137.895 58.119 133.578 c 62.624 129.219 64.874 123.91 64.874 117.645
 c h
64.874 117.645 m S Q
0.14902 0.34902 0.556863 rg
124.758 147.638 m 92.109 104.783 l 91.766 104.326 90.555 102.681 90.496
 101.923 c 90.367 100.259 90.422 99.017 90.402 98.04 c 90.211 96.748 91.625
 98.962 93.902 101.595 c 125.348 143.15 l 125.348 143.15 127.445 145.494
 124.758 147.638 c h
124.758 147.638 m f
0.14902 0.345098 0.552941 rg
2.387549 w
q 1 0 0 -1 0 190.9272 cm
124.758 43.289 m 92.109 86.145 l 91.766 86.602 90.555 88.246 90.496 89.004
 c 90.367 90.668 90.422 91.91 90.402 92.887 c 90.211 94.18 91.625 91.965
 93.902 89.332 c 125.348 47.777 l 125.348 47.777 127.445 45.434 124.758 
43.289 c h
124.758 43.289 m S Q
Q Q
showpage
%%Trailer
end restore
%%EOF
